  [1m[36m (117.4ms)[0m  [1mCREATE TABLE "schema_migrations" ("version" varchar NOT NULL) [0m
  [1m[35m (0.2ms)[0m  select sqlite_version(*)
  [1m[36m (99.5ms)[0m  [1mCREATE UNIQUE INDEX "unique_schema_migrations" ON "schema_migrations" ("version")[0m
  [1m[35mActiveRecord::SchemaMigration Load (0.3ms)[0m  SELECT "schema_migrations".* FROM "schema_migrations"
Migrating to CreatePosts (20150329184528)
  [1m[36m (0.2ms)[0m  [1mbegin transaction[0m
  [1m[35m (0.6ms)[0m  CREATE TABLE "posts" ("id" INTEGER PRIMARY KEY AUTOINCREMENT NOT NULL, "title" text, "body" text, "created_at" datetime NOT NULL, "updated_at" datetime NOT NULL) 
  [1m[36mSQL (0.4ms)[0m  [1mINSERT INTO "schema_migrations" ("version") VALUES (?)[0m  [["version", "20150329184528"]]
  [1m[35m (98.4ms)[0m  commit transaction
Migrating to CreateComments (20150329184544)
  [1m[36m (0.2ms)[0m  [1mbegin transaction[0m
  [1m[35m (0.6ms)[0m  CREATE TABLE "comments" ("id" INTEGER PRIMARY KEY AUTOINCREMENT NOT NULL, "post_id" integer, "body" text, "created_at" datetime NOT NULL, "updated_at" datetime NOT NULL) 
  [1m[36mSQL (0.2ms)[0m  [1mINSERT INTO "schema_migrations" ("version") VALUES (?)[0m  [["version", "20150329184544"]]
  [1m[35m (95.8ms)[0m  commit transaction
  [1m[36mActiveRecord::SchemaMigration Load (0.2ms)[0m  [1mSELECT "schema_migrations".* FROM "schema_migrations"[0m


Started GET "/" for 127.0.0.1 at 2015-03-29 20:46:35 +0200
  [1m[36mActiveRecord::SchemaMigration Load (0.1ms)[0m  [1mSELECT "schema_migrations".* FROM "schema_migrations"[0m
Processing by Rails::WelcomeController#index as HTML
  Rendered /home/asegnz/.gem/ruby/gems/railties-4.2.0/lib/rails/templates/rails/welcome/index.html.erb (1.3ms)
Completed 200 OK in 26ms (Views: 8.2ms | ActiveRecord: 0.0ms)


Started GET "/rails/info/properties" for 127.0.0.1 at 2015-03-29 20:46:38 +0200
Processing by Rails::InfoController#properties as */*
  [1m[35mActiveRecord::SchemaMigration Load (0.1ms)[0m  SELECT "schema_migrations".* FROM "schema_migrations"
  Rendered /home/asegnz/.gem/ruby/gems/railties-4.2.0/lib/rails/templates/rails/info/properties.html.erb (0.5ms)
Completed 200 OK in 55ms (Views: 37.0ms | ActiveRecord: 0.4ms)


Started GET "/posts" for 127.0.0.1 at 2015-03-29 20:46:47 +0200
Processing by PostsController#index as HTML
  [1m[36mPost Load (0.2ms)[0m  [1mSELECT "posts".* FROM "posts"[0m
  Rendered posts/index.html.erb within layouts/application (4.0ms)
Completed 500 Internal Server Error in 291ms

ActionView::Template::Error (Could not find a JavaScript runtime. See https://github.com/sstephenson/execjs for a list of available runtimes.
  (in /home/asegnz/.gem/ruby/gems/turbolinks-2.5.3/lib/assets/javascripts/turbolinks.js.coffee)):
    3: <head>
    4:   <title>Blog</title>
    5:   <%= stylesheet_link_tag    'application', media: 'all', 'data-turbolinks-track' => true %>
    6:   <%= javascript_include_tag 'application', 'data-turbolinks-track' => true %>
    7:   <%= csrf_meta_tags %>
    8: </head>
    9: <body>
  app/views/layouts/application.html.erb:6:in `_app_views_layouts_application_html_erb__4076843356002380131_4381360'


  Rendered /home/asegnz/.gem/ruby/gems/actionpack-4.2.0/lib/action_dispatch/middleware/templates/rescues/_source.erb (11.1ms)
  Rendered /home/asegnz/.gem/ruby/gems/actionpack-4.2.0/lib/action_dispatch/middleware/templates/rescues/_trace.html.erb (3.8ms)
  Rendered /home/asegnz/.gem/ruby/gems/actionpack-4.2.0/lib/action_dispatch/middleware/templates/rescues/_request_and_response.html.erb (1.0ms)
  Rendered /home/asegnz/.gem/ruby/gems/actionpack-4.2.0/lib/action_dispatch/middleware/templates/rescues/template_error.html.erb within rescues/layout (24.8ms)
  Rendered /home/asegnz/.gem/ruby/gems/web-console-2.1.2/lib/web_console/templates/_markup.html.erb (0.3ms)
  Rendered /home/asegnz/.gem/ruby/gems/web-console-2.1.2/lib/web_console/templates/style.css.erb within layouts/inlined_string (0.3ms)
  Rendered /home/asegnz/.gem/ruby/gems/web-console-2.1.2/lib/web_console/templates/_inner_console_markup.html.erb within layouts/inlined_string (0.4ms)
  Rendered /home/asegnz/.gem/ruby/gems/web-console-2.1.2/lib/web_console/templates/_prompt_box_markup.html.erb within layouts/inlined_string (0.3ms)
  Rendered /home/asegnz/.gem/ruby/gems/web-console-2.1.2/lib/web_console/templates/console.js.erb within layouts/javascript (11.6ms)
  Rendered /home/asegnz/.gem/ruby/gems/web-console-2.1.2/lib/web_console/templates/main.js.erb within layouts/javascript (0.5ms)
  Rendered /home/asegnz/.gem/ruby/gems/web-console-2.1.2/lib/web_console/templates/error_page.js.erb within layouts/javascript (0.4ms)
  Rendered /home/asegnz/.gem/ruby/gems/web-console-2.1.2/lib/web_console/templates/index.html.erb (87.8ms)


Started GET "/" for 127.0.0.1 at 2015-03-29 20:59:13 +0200
  [1m[36mActiveRecord::SchemaMigration Load (0.2ms)[0m  [1mSELECT "schema_migrations".* FROM "schema_migrations"[0m
Processing by Rails::WelcomeController#index as HTML
  Rendered /home/asegnz/.gem/ruby/gems/railties-4.2.0/lib/rails/templates/rails/welcome/index.html.erb (1.5ms)
Completed 200 OK in 30ms (Views: 8.9ms | ActiveRecord: 0.0ms)


Started GET "/posts" for 127.0.0.1 at 2015-03-29 20:59:22 +0200
Processing by PostsController#index as HTML
  [1m[35mPost Load (0.2ms)[0m  SELECT "posts".* FROM "posts"
  Rendered posts/index.html.erb within layouts/application (2.6ms)
Completed 200 OK in 674ms (Views: 671.3ms | ActiveRecord: 0.3ms)


Started GET "/assets/comments-64e62ddc273c2f5847f30d698ca14b67.css?body=1" for 127.0.0.1 at 2015-03-29 20:59:23 +0200


Started GET "/assets/posts-64e62ddc273c2f5847f30d698ca14b67.css?body=1" for 127.0.0.1 at 2015-03-29 20:59:23 +0200


Started GET "/assets/scaffolds-d2ec7d7e11208ff5f001eae5a164cb3c.css?body=1" for 127.0.0.1 at 2015-03-29 20:59:23 +0200


Started GET "/assets/application-338baff74a66334dd648d28858bf09dd.css?body=1" for 127.0.0.1 at 2015-03-29 20:59:23 +0200


Started GET "/assets/jquery-87424c3c19e96d4fb033c10ebe21ec40.js?body=1" for 127.0.0.1 at 2015-03-29 20:59:23 +0200


Started GET "/assets/jquery_ujs-e27bd20a10d28155845a22d71ef94f2f.js?body=1" for 127.0.0.1 at 2015-03-29 20:59:23 +0200


Started GET "/assets/turbolinks-f87b3583ca50adb0488b031297f5580d.js?body=1" for 127.0.0.1 at 2015-03-29 20:59:23 +0200


Started GET "/assets/comments-46c9a194bd0668e67d57241f94473dc8.js?body=1" for 127.0.0.1 at 2015-03-29 20:59:23 +0200


Started GET "/assets/posts-46c9a194bd0668e67d57241f94473dc8.js?body=1" for 127.0.0.1 at 2015-03-29 20:59:23 +0200


Started GET "/assets/application-a26063ec9911f02e5ee7e0377f1cf2c7.js?body=1" for 127.0.0.1 at 2015-03-29 20:59:23 +0200


Started GET "/posts/new" for 127.0.0.1 at 2015-03-29 20:59:25 +0200
Processing by PostsController#new as HTML
  Rendered posts/_form.html.erb (71.3ms)
  Rendered posts/new.html.erb within layouts/application (74.9ms)
Completed 200 OK in 135ms (Views: 126.7ms | ActiveRecord: 0.5ms)
